{"response":{"docs":[{"id":"81431-p3kp7tz3r","active_fedora_model_ssi":"Manuscript","has_model_ssim":["Manuscript"],"unique_identifier_tesim":["ark:/81431/p3kp7tz3r"],"system_create_dtsi":"2021-03-22T23:51:09Z","system_modified_dtsi":"2021-04-01T16:31:55Z","collection_tesim":["Corporate reports online"],"collection_ssim":["Corporate reports online"],"corporate_name_tesim":["National Food Products Corporation"],"corporate_name_ssim":["National Food Products Corporation"],"date_tesim":["1959"],"date_ssim":["1959"],"rights_tesim":["https://rightsstatements.org/page/CNE/1.0/?language=en"],"rights_ssim":["https://rightsstatements.org/page/CNE/1.0/?language=en"],"subject_tesim":["Food"],"subject_ssim":["Food"],"title_tesim":["Annual report, 1959"],"title_ssim":["Annual report, 1959"],"_version_":1695856424071987200,"timestamp":"2021-04-01T16:31:55.95Z","score":3.4082396,"thumbnail_url":""},{"id":"81431-p3qf8jr6d","active_fedora_model_ssi":"Manuscript","has_model_ssim":["Manuscript"],"unique_identifier_tesim":["ark:/81431/p3qf8jr6d"],"system_create_dtsi":"2021-03-22T23:51:18Z","system_modified_dtsi":"2021-04-01T16:33:42Z","collection_tesim":["Corporate reports online"],"collection_ssim":["Corporate reports online"],"corporate_name_tesim":["National Food Products Corporation"],"corporate_name_ssim":["National Food Products Corporation"],"date_tesim":["1958"],"date_ssim":["1958"],"rights_tesim":["https://rightsstatements.org/page/CNE/1.0/?language=en"],"rights_ssim":["https://rightsstatements.org/page/CNE/1.0/?language=en"],"subject_tesim":["Food"],"subject_ssim":["Food"],"title_tesim":["Annual report, 1958"],"title_ssim":["Annual report, 1958"],"_version_":1695856536075632640,"timestamp":"2021-04-01T16:33:42.765Z","score":3.4082396,"thumbnail_url":""},{"id":"81431-p3000066k","active_fedora_model_ssi":"Manuscript","has_model_ssim":["Manuscript"],"unique_identifier_tesim":["ark:/81431/p3000066k"],"system_create_dtsi":"2021-03-22T23:51:35Z","system_modified_dtsi":"2021-04-01T16:33:42Z","collection_tesim":["Corporate reports online"],"collection_ssim":["Corporate reports online"],"corporate_name_tesim":["National Food Products Corporation"],"corporate_name_ssim":["National Food Products Corporation"],"date_tesim":["1956"],"date_ssim":["1956"],"rights_tesim":["https://rightsstatements.org/page/CNE/1.0/?language=en"],"rights_ssim":["https://rightsstatements.org/page/CNE/1.0/?language=en"],"subject_tesim":["Food"],"subject_ssim":["Food"],"title_tesim":["Annual report, 1956"],"title_ssim":["Annual report, 1956"],"_version_":1695856536280104960,"timestamp":"2021-04-01T16:33:42.96Z","score":3.4082396,"thumbnail_url":""},{"id":"81431-p3v698k05","active_fedora_model_ssi":"Manuscript","has_model_ssim":["Manuscript"],"unique_identifier_tesim":["ark:/81431/p3v698k05"],"system_create_dtsi":"2021-03-22T23:51:27Z","system_modified_dtsi":"2021-04-01T16:33:44Z","collection_tesim":["Corporate reports online"],"collection_ssim":["Corporate reports online"],"corporate_name_tesim":["National Food Products Corporation"],"corporate_name_ssim":["National Food Products Corporation"],"date_tesim":["1957"],"date_ssim":["1957"],"rights_tesim":["https://rightsstatements.org/page/CNE/1.0/?language=en"],"rights_ssim":["https://rightsstatements.org/page/CNE/1.0/?language=en"],"subject_tesim":["Food"],"subject_ssim":["Food"],"title_tesim":["Annual report, 1957"],"title_ssim":["Annual report, 1957"],"_version_":1695856537627525120,"timestamp":"2021-04-01T16:33:44.245Z","score":3.4082396,"thumbnail_url":""},{"id":"81431-p37h1dt5v","active_fedora_model_ssi":"Manuscript","has_model_ssim":["Manuscript"],"unique_identifier_tesim":["ark:/81431/p37h1dt5v"],"system_create_dtsi":"2021-03-22T23:51:53Z","system_modified_dtsi":"2021-04-01T16:35:31Z","collection_tesim":["Corporate reports online"],"collection_ssim":["Corporate reports online"],"corporate_name_tesim":["National Food Products Corporation"],"corporate_name_ssim":["National Food Products Corporation"],"date_tesim":["1954"],"date_ssim":["1954"],"rights_tesim":["https://rightsstatements.org/page/CNE/1.0/?language=en"],"rights_ssim":["https://rightsstatements.org/page/CNE/1.0/?language=en"],"subject_tesim":["Food"],"subject_ssim":["Food"],"title_tesim":["Annual report, 1954"],"title_ssim":["Annual report, 1954"],"_version_":1695856650218373120,"timestamp":"2021-04-01T16:35:31.62Z","score":3.4082396,"thumbnail_url":""},{"id":"81431-p33r0q12m","active_fedora_model_ssi":"Manuscript","has_model_ssim":["Manuscript"],"unique_identifier_tesim":["ark:/81431/p33r0q12m"],"system_create_dtsi":"2021-03-22T23:51:43Z","system_modified_dtsi":"2021-04-01T16:35:31Z","collection_tesim":["Corporate reports online"],"collection_ssim":["Corporate reports online"],"corporate_name_tesim":["National Food Products Corporation"],"corporate_name_ssim":["National Food Products Corporation"],"date_tesim":["1955"],"date_ssim":["1955"],"rights_tesim":["https://rightsstatements.org/page/CNE/1.0/?language=en"],"rights_ssim":["https://rightsstatements.org/page/CNE/1.0/?language=en"],"subject_tesim":["Food"],"subject_ssim":["Food"],"title_tesim":["Annual report, 1955"],"title_ssim":["Annual report, 1955"],"_version_":1695856650618929152,"timestamp":"2021-04-01T16:35:32.002Z","score":3.4082396,"thumbnail_url":""},{"id":"81431-p3d50g44z","active_fedora_model_ssi":"Manuscript","has_model_ssim":["Manuscript"],"unique_identifier_tesim":["ark:/81431/p3d50g44z"],"system_create_dtsi":"2021-03-22T23:53:21Z","system_modified_dtsi":"2021-04-01T16:40:59Z","collection_tesim":["Corporate reports online"],"collection_ssim":["Corporate reports online"],"corporate_name_tesim":["National Food Products Corporation"],"corporate_name_ssim":["National Food Products Corporation"],"date_tesim":["1945"],"date_ssim":["1945"],"rights_tesim":["https://rightsstatements.org/page/CNE/1.0/?language=en"],"rights_ssim":["https://rightsstatements.org/page/CNE/1.0/?language=en"],"subject_tesim":["Food"],"subject_ssim":["Food"],"title_tesim":["Annual report, 1945"],"title_ssim":["Annual report, 1945"],"_version_":1695856994337947648,"timestamp":"2021-04-01T16:40:59.797Z","score":3.4082396,"thumbnail_url":""},{"id":"81431-p3np1wr2r","active_fedora_model_ssi":"Manuscript","has_model_ssim":["Manuscript"],"unique_identifier_tesim":["ark:/81431/p3np1wr2r"],"system_create_dtsi":"2021-03-22T23:53:37Z","system_modified_dtsi":"2021-04-01T16:42:39Z","collection_tesim":["Corporate reports online"],"collection_ssim":["Corporate reports online"],"corporate_name_tesim":["National Food Products Corporation"],"corporate_name_ssim":["National Food Products Corporation"],"date_tesim":["1943"],"date_ssim":["1943"],"rights_tesim":["https://rightsstatements.org/page/CNE/1.0/?language=en"],"rights_ssim":["https://rightsstatements.org/page/CNE/1.0/?language=en"],"subject_tesim":["Food"],"subject_ssim":["Food"],"title_tesim":["Annual report, 1943"],"title_ssim":["Annual report, 1943"],"_version_":1695857099254267904,"timestamp":"2021-04-01T16:42:39.853Z","score":3.4082396,"thumbnail_url":""},{"id":"81431-p3sf2mj7c","active_fedora_model_ssi":"Manuscript","has_model_ssim":["Manuscript"],"unique_identifier_tesim":["ark:/81431/p3sf2mj7c"],"system_create_dtsi":"2021-03-22T23:53:46Z","system_modified_dtsi":"2021-04-01T16:42:44Z","collection_tesim":["Corporate reports online"],"collection_ssim":["Corporate reports online"],"corporate_name_tesim":["National Food Products Corporation"],"corporate_name_ssim":["National Food Products Corporation"],"date_tesim":["1942"],"date_ssim":["1942"],"rights_tesim":["https://rightsstatements.org/page/CNE/1.0/?language=en"],"rights_ssim":["https://rightsstatements.org/page/CNE/1.0/?language=en"],"subject_tesim":["Food"],"subject_ssim":["Food"],"title_tesim":["Annual report, 1942"],"title_ssim":["Annual report, 1942"],"_version_":1695857103816622080,"timestamp":"2021-04-01T16:42:44.205Z","score":3.4082396,"thumbnail_url":""},{"id":"81431-p3x63bc33","active_fedora_model_ssi":"Manuscript","has_model_ssim":["Manuscript"],"unique_identifier_tesim":["ark:/81431/p3x63bc33"],"system_create_dtsi":"2021-03-22T23:53:55Z","system_modified_dtsi":"2021-04-01T16:42:46Z","collection_tesim":["Corporate reports online"],"collection_ssim":["Corporate reports online"],"corporate_name_tesim":["National Food Products Corporation"],"corporate_name_ssim":["National Food Products Corporation"],"date_tesim":["1941"],"date_ssim":["1941"],"rights_tesim":["https://rightsstatements.org/page/CNE/1.0/?language=en"],"rights_ssim":["https://rightsstatements.org/page/CNE/1.0/?language=en"],"subject_tesim":["Food"],"subject_ssim":["Food"],"title_tesim":["Annual report, 1941"],"title_ssim":["Annual report, 1941"],"_version_":1695857106444353536,"timestamp":"2021-04-01T16:42:46.711Z","score":3.4082396,"thumbnail_url":""}],"facets":[{"items":[{"value":"Arnold and Deanne Kaplan Collection of Early American Judaica (University of Pennsylvania)","hits":488,"label":"Arnold and Deanne Kaplan Collection of Early American Judaica (University of Pennsylvania)"},{"value":"Corporate reports online","hits":62,"label":"Corporate reports online"},{"value":"Arnold and Deanne Kaplan Collection of Modern American Judaica (University of Pennsylvania)","hits":52,"label":"Arnold and Deanne Kaplan Collection of Modern American Judaica (University of Pennsylvania)"},{"value":"Collection of Indic Manuscripts.","hits":16,"label":"Collection of Indic Manuscripts."},{"value":"Fairman Rogers Collection (University of Pennsylvania)","hits":4,"label":"Fairman Rogers Collection (University of Pennsylvania)"},{"value":"Laurence Salzmann photographs","hits":3,"label":"Laurence Salzmann photographs"}],"name":"collection_sim","label":"Collection"},{"items":[{"value":"Food industry and trade","hits":558,"label":"Food industry and trade"},{"value":"Jewish merchants","hits":506,"label":"Jewish merchants"},{"value":"Trade cards (advertising)","hits":215,"label":"Trade cards (advertising)"},{"value":"Business records","hits":136,"label":"Business records"},{"value":"Financial records","hits":79,"label":"Financial records"},{"value":"Food","hits":62,"label":"Food"}],"name":"subject_sim","label":"Subject"},{"items":[{"value":"English","hits":569,"label":"English"},{"value":"Italian","hits":24,"label":"Italian"},{"value":"Sanskrit","hits":17,"label":"Sanskrit"},{"value":"Portuguese","hits":10,"label":"Portuguese"},{"value":"German","hits":4,"label":"German"},{"value":"Latin","hits":4,"label":"Latin"}],"name":"language_sim","label":"Language"},{"items":[{"value":"unknown","hits":289,"label":"unknown"},{"value":"1700","hits":13,"label":"1700"},{"value":"1863","hits":8,"label":"1863"},{"value":"1885","hits":3,"label":"1885"},{"value":"1939","hits":3,"label":"1939"},{"value":"1940","hits":3,"label":"1940"}],"name":"date_sim","label":"Date"},{"items":[{"value":"Anantadeva, active 17th century.","hits":3,"label":"Anantadeva, active 17th century."},{"value":"Mayhew, Edward, 1813?-1868.","hits":2,"label":"Mayhew, Edward, 1813?-1868."},{"value":"Mongai, Domenico.","hits":2,"label":"Mongai, Domenico."},{"value":"Padovani, Francesco.","hits":2,"label":"Padovani, Francesco."},{"value":"Briscoe, John Hanson, 1789-1855.","hits":1,"label":"Briscoe, John Hanson, 1789-1855."},{"value":"Carretto family.","hits":1,"label":"Carretto family."}],"name":"creator_sim","label":"Creator"},{"items":[{"value":"[Italy], 1555-1560.","hits":2,"label":"[Italy], 1555-1560."},{"value":"1774-1777.","hits":1,"label":"1774-1777."},{"value":"Barga, [after 1346]","hits":1,"label":"Barga, [after 1346]"},{"value":"Florence, 1577-1583.","hits":1,"label":"Florence, 1577-1583."},{"value":"London : Wm. H. Allen \u0026 Co., 1876.","hits":1,"label":"London : Wm. H. Allen \u0026 Co., 1876."},{"value":"Montreal, 1774-1776.","hits":1,"label":"Montreal, 1774-1776."}],"name":"publisher_sim","label":"Publisher"},{"items":[{"value":"Trade cards","hits":215,"label":"Trade cards"},{"value":"Billheads","hits":79,"label":"Billheads"},{"value":"Manuscripts","hits":54,"label":"Manuscripts"},{"value":"Billhead","hits":50,"label":"Billhead"},{"value":"Letterheads","hits":44,"label":"Letterheads"},{"value":"Letters","hits":35,"label":"Letters"}],"name":"item_type_sim","label":"Type"},{"items":[{"value":"Medici, House of.","hits":9,"label":"Medici, House of."},{"value":"Tobias, Tobias I.","hits":9,"label":"Tobias, Tobias I."},{"value":"Medici, House of","hits":8,"label":"Medici, House of"},{"value":"Tobias, Tobias Isaac","hits":6,"label":"Tobias, Tobias Isaac"},{"value":"Castle","hits":5,"label":"Castle"},{"value":"Cohn, M. G.","hits":4,"label":"Cohn, M. G."}],"name":"personal_name_sim","label":"Personal Name"},{"items":[{"value":"National Food Products Corporation","hits":29,"label":"National Food Products Corporation"},{"value":"Fleischmann \u0026 Co.","hits":23,"label":"Fleischmann \u0026 Co."},{"value":"United States Sugar Corporation","hits":15,"label":"United States Sugar Corporation"},{"value":"Beatrice Creamery Company","hits":13,"label":"Beatrice Creamery Company"},{"value":"Cohen Bros.","hits":12,"label":"Cohen Bros."},{"value":"H. \u0026 N. Weinheimer","hits":7,"label":"H. \u0026 N. Weinheimer"}],"name":"corporate_name_sim","label":"Corporate Name"},{"items":[{"value":"United States -- New York","hits":145,"label":"United States -- New York"},{"value":"United States -- New York -- New York","hits":105,"label":"United States -- New York -- New York"},{"value":"United States -- Pennsylvania","hits":59,"label":"United States -- Pennsylvania"},{"value":"United States -- California","hits":55,"label":"United States -- California"},{"value":"United States -- Pennsylvania -- Philadelphia","hits":38,"label":"United States -- Pennsylvania -- Philadelphia"},{"value":"United States -- California -- San Francisco","hits":36,"label":"United States -- California -- San Francisco"}],"name":"geographic_subject_sim","label":"Geographic Subject"}],"pages":{"current_page":1,"next_page":2,"prev_page":null,"total_pages":70,"limit_value":10,"offset_value":0,"total_count":695,"first_page?":true,"last_page?":false}}}